<?xml version="1.0" encoding="UTF-8"?>
<svg width="20px" height="20px" viewBox="0 0 20 20" version="1.1" xmlns="http://www.w3.org/2000/svg" xmlns:xlink="http://www.w3.org/1999/xlink">
    <!-- Generator: Sketch 49.1 (51147) - http://www.bohemiancoding.com/sketch -->
    <title>Group</title>
    <desc>Created with Sketch.</desc>
    <defs></defs>
    <g id="Page-1" stroke="none" stroke-width="1" fill="none" fill-rule="evenodd" stroke-linecap="round">
        <g id="Menu-Default" transform="translate(-332.000000, -59.000000)" stroke="#212221" stroke-width="2">
            <g id="Group-3" transform="translate(0.000000, 40.000000)">
                <g id="Group" transform="translate(333.000000, 20.000000)">
                    <path d="M0.692307692,0.692307692 L17.3365135,17.3365135" id="Line-2"></path>
                    <path d="M0.692307692,0.692307692 L17.3365135,17.3365135" id="Line-2" transform="translate(9.000000, 9.000000) scale(-1, 1) translate(-9.000000, -9.000000) "></path>
                </g>
            </g>
        </g>
    </g>
</svg>